﻿Primer Nombre,Apellidos,Edad,Correo
Jairo,Yate,40,jyatem@cedesistemas.edu.co
Lina,Mora,40,lmora@cedesistemas.edu.co
Mariana,Yate,14,myate@cedesistemas.edu.co
Juan Manuel,Yate,10,jmyate@cedesistemas.edu.co
Raquel,Martinez,60,rmorales@cedesistemas.edu.co
Jairo,Yate,40,jyatem@cedesistemas.edu.co
Lina,Mora,40,lmora@cedesistemas.edu.co
Mariana,Yate,14,myate@cedesistemas.edu.co
Juan Manuel,Yate,10,jmyate@cedesistemas.edu.co
Raquel,Martinez,60,rmorales@cedesistemas.edu.co
